{
    "ExampleSourceID":{
        "institution_id" : "CCCma",
        "source" : "Example Source ID: This is a test source id description."
    },
    "CanESM5-64b":{
        "activity_participation":[
            "C4MIP",
            "CDRMIP",
            "CFMIP",
            "CMIP",
            "CORDEX",
            "DAMIP",
            "DCPP",
            "DynVarMIP",
            "FAFMIP",
            "GMMIP",
            "GeoMIP",
            "ISMIP6",
            "LS3MIP",
            "LUMIP",
            "OMIP",
            "RFMIP",
            "SIMIP",
            "ScenarioMIP",
            "VIACSAB",
            "VolMIP"
        ],
        "cohort":[
            "Registered"
        ],
        "institution_id":[
            "CCCma"
        ],
        "label":"CanESM5-64b",
        "label_extended":"CanESM5-64b",
        "model_component":{
            "aerosol":{
                "description":"interactive",
                "native_nominal_resolution":"500 km"
            },
            "atmos":{
                "description":"CanAM5 (T63L49 native atmosphere, T63 Linear Gaussian Grid; 128 x 64 longitude/latitude; 49 levels; top level 1 hPa, 64-bit)",
                "native_nominal_resolution":"500 km"
            },
            "atmosChem":{
                "description":"specified oxidants for aerosols",
                "native_nominal_resolution":"500 km"
            },
            "land":{
                "description":"CLASS3.6/CTEM1.2",
                "native_nominal_resolution":"500 km"
            },
            "landIce":{
                "description":"specified ice sheets",
                "native_nominal_resolution":"500 km"
            },
            "ocean":{
                "description":"NEMO3.4.1 (ORCA1 tripolar grid, 1 deg with refinement to 1/3 deg within 20 degrees of the equator; 361 x 290 longitude/latitude; 45 vertical levels; top grid cell 0-6.19 m)",
                "native_nominal_resolution":"100 km"
            },
            "ocnBgchem":{
                "description":"Canadian Model of Ocean Carbon (CMOC); NPZD ecosystem with OMIP prescribed carbonate chemistry",
                "native_nominal_resolution":"100 km"
            },
            "seaIce":{
                "description":"LIM2",
                "native_nominal_resolution":"100 km"
            }
        },
        "release_year":"2019",
        "source_id":"CanESM5-64b"
    }
}

